…
## Checking for Incomplete Data

``` r
# Check for bakers without any competition data
missing_bakers <- bakers_df %>%
  anti_join(bakes_df, by = c("baker_first_name", "series"))
print(missing_bakers)
```

    ## # A tibble: 25 × 6
    ##    baker_first_name baker_last_name series baker_age baker_occupation   hometown
    ##    <chr>            <chr>            <dbl>     <dbl> <chr>              <chr>   
    ##  1 Alice            Fevronia            10        28 Geography teacher  Essex   
    ##  2 Amelia           LeBruin             10        24 Fashion designer   Halifax 
    ##  3 Antony           Amourdoux            9        30 Banker             London  
    ##  4 Briony           Williams             9        33 Full-time parent   Bristol 
    ##  5 Dan              Beasley-Harling      9        36 Full-time parent   London  
    ##  6 Dan              Chambers            10        32 Support worker     Rotherh…
    ##  7 David            Atherton            10        36 International hea… Whitby  
    ##  8 Helena           Garcia              10        40 Online project ma… Leeds   
    ##  9 Henry            Bird                10        20 Student            Durham  
    ## 10 Imelda           McCarron             9        33 Countryside recre… County …
    ## # ℹ 15 more rows
…
